MemTotal:        8069116 kB
MemFree:         4572544 kB
MemAvailable:    5948952 kB
Buffers:          438172 kB
Cached:          1345072 kB
SwapCached:        21540 kB
Active:          1640808 kB
Inactive:        1419712 kB
Active(anon):     495468 kB
Inactive(anon):  1016788 kB
Active(file):    1145340 kB
Inactive(file):   402924 kB
Unevictable:       34816 kB
Mlocked:             560 kB
SwapTotal:        999420 kB
SwapFree:         562232 kB
Dirty:              1684 kB
Writeback:             0 kB
AnonPages:       1251196 kB
Mapped:           448880 kB
Shmem:            237988 kB
KReclaimable:     131624 kB
Slab:             220072 kB
SReclaimable:     131624 kB
SUnreclaim:        88448 kB
KernelStack:       11936 kB
PageTables:        20496 kB
NFS_Unstable:          0 kB
Bounce:                0 kB
WritebackTmp:          0 kB
CommitLimit:     5033976 kB
Committed_AS:    5633480 kB
VmallocTotal:   34359738367 kB
VmallocUsed:       32836 kB
VmallocChunk:          0 kB
Percpu:             4576 kB
HardwareCorrupted:     0 kB
AnonHugePages:    405504 kB
ShmemHugePages:        0 kB
ShmemPmdMapped:        0 kB
FileHugePages:         0 kB
FilePmdMapped:         0 kB
HugePages_Total:       0
HugePages_Free:        0
HugePages_Rsvd:        0
HugePages_Surp:        0
Hugepagesize:       2048 kB
Hugetlb:               0 kB
DirectMap4k:      525056 kB
DirectMap2M:     7778304 kB
DirectMap1G:     1048576 kB
